<?xml version="1.0" encoding="UTF-8"?>
<svg id="Layer_1" data-name="Layer 1" xmlns="http://www.w3.org/2000/svg" viewBox="0 0 131.74 100.69">
  <defs>
    <style>
      .cls-1 {
        fill: #010101;
      }
    </style>
  </defs>
  <g>
    <path class="cls-1" d="M33.47,.78h-1.16v.7h1.08v.7h-1.08v1.5h-.83V.08h1.99V.78Z"/>
    <path class="cls-1" d="M42.9,.78h-1.2v.7h1.14v.7h-1.14v.8h1.2v.7h-2.03V.08h2.03V.78Z"/>
    <path class="cls-1" d="M52.22,.96c-.27-.24-.5-.26-.6-.26-.11,0-.25,.02-.35,.12-.05,.05-.09,.13-.09,.23,0,.09,.03,.15,.08,.2,.09,.08,.21,.11,.45,.2l.27,.1c.16,.06,.35,.14,.49,.27,.21,.2,.26,.46,.26,.67,0,.37-.13,.7-.32,.89-.32,.33-.78,.37-1.02,.37-.26,0-.49-.04-.71-.15-.18-.09-.39-.26-.53-.39l.43-.59c.09,.09,.24,.22,.33,.27,.14,.09,.29,.13,.45,.13,.11,0,.26-.02,.38-.12,.07-.06,.13-.16,.13-.29,0-.12-.05-.19-.12-.26-.1-.08-.32-.16-.42-.2l-.3-.1c-.17-.06-.36-.13-.5-.29-.19-.2-.22-.45-.22-.63,0-.32,.1-.59,.31-.81,.25-.26,.56-.33,.89-.33,.25,0,.65,.04,1.07,.36l-.37,.6Z"/>
    <path class="cls-1" d="M61.38,.78V3.68h-.83V.78h-.78V.08h2.39V.78h-.78Z"/>
    <path class="cls-1" d="M70.23,.08V3.68h-.83V.08h.83Z"/>
    <path class="cls-1" d="M78.35,.08l.91,2.3,.91-2.3h.89l-1.53,3.6h-.56l-1.53-3.6h.89Z"/>
    <path class="cls-1" d="M89.99,3h-1.36l-.28,.68h-.86l1.45-3.6h.76l1.42,3.6h-.86l-.27-.68Zm-.23-.64l-.44-1.21-.45,1.21h.89Z"/>
    <path class="cls-1" d="M99.15,.08V2.98h1.12v.7h-1.95V.08h.83Z"/>
  </g>
  <g>
    <g>
      <g id="Layer3_4_MEMBER_11_FILL" data-name="Layer3 4 MEMBER 11 FILL">
        <path class="cls-1" d="M19.49,24.5l-5.46-11.38L0,43.09H9.6l9.89-18.59Z"/>
      </g>
      <polygon class="cls-1" points="14.04 13.12 8.76 24.39 16.87 39.51 18.79 43.1 28.44 43.1 23.49 32.79 22.16 30.01 14.04 13.12"/>
      <polygon class="cls-1" points="14.03 13.13 8.76 24.39 11.78 30.01 14.18 34.49 19.49 24.5 14.03 13.13"/>
    </g>
    <g>
      <g id="Layer3_4_MEMBER_11_FILL-2" data-name="Layer3 4 MEMBER 11 FILL">
        <path class="cls-1" d="M101.01,24.5l-5.46-11.38-14.03,29.97h9.6l9.89-18.59Z"/>
      </g>
      <polygon class="cls-1" points="95.55 13.12 90.28 24.39 98.38 39.51 100.31 43.1 109.96 43.1 105 32.79 103.67 30.01 95.55 13.12"/>
      <polygon class="cls-1" points="95.55 13.13 90.28 24.39 93.29 30.01 95.69 34.49 101.01 24.5 95.55 13.13"/>
    </g>
    <g>
      <g id="Layer3_4_FILL" data-name="Layer3 4 FILL">
        <path class="cls-1" d="M52.83,17.78c-2.9-2.9-6.4-4.35-10.5-4.35-4.1,0-7.6,1.45-10.5,4.35-2.9,2.9-4.35,6.4-4.35,10.5s1.45,7.6,4.35,10.5c2.9,2.9,6.4,4.35,10.5,4.35s7.6-1.45,10.5-4.35c2.9-2.9,4.35-6.4,4.35-10.5s-1.45-7.6-4.35-10.5Z"/>
      </g>
      <path class="cls-1" d="M46.58,29.36l-4.52,4.52,7.44,7.44c1.18-.66,2.29-1.51,3.32-2.54,.54-.54,1.04-1.11,1.48-1.69l-7.73-7.73Z"/>
      <path class="cls-1" d="M54.31,37.08c-.44,.59-.93,1.15-1.48,1.69-1.03,1.03-2.14,1.88-3.32,2.54l5.26,5.26,4.52-4.52-4.98-4.98Z"/>
    </g>
    <g>
      <g id="Layer3_4_MEMBER_16_FILL" data-name="Layer3 4 MEMBER 16 FILL">
        <path class="cls-1" d="M61.54,34.59c0,2.43,.93,4.5,2.78,6.22,1.85,1.72,4.08,2.58,6.7,2.58s4.85-.86,6.7-2.58c1.85-1.72,2.78-3.79,2.78-6.22V13.69h-18.94v20.9Z"/>
      </g>
      <rect class="cls-1" x="61.55" y="13.69" width="18.94" height="11.07"/>
    </g>
    <g>
      <rect class="cls-1" x="112.63" y="13.69" width="8.79" height="29.4"/>
      <g id="Layer3_4_MEMBER_2_MEMBER_0_FILL" data-name="Layer3 4 MEMBER 2 MEMBER 0 FILL">
        <path class="cls-1" d="M131.74,43.09v-9.98h-19.1v9.98h19.1Z"/>
      </g>
      <rect class="cls-1" x="112.64" y="33.11" width="8.78" height="9.98"/>
    </g>
  </g>
  <g>
    <g>
      <rect class="cls-1" x="23.07" y="51.06" width="8.79" height="29.4"/>
      <g id="Layer3_4_MEMBER_3_FILL" data-name="Layer3 4 MEMBER 3 FILL">
        <path class="cls-1" d="M17.56,51.06v11.07h19.81v-11.07H17.56Z"/>
      </g>
      <rect class="cls-1" x="23.07" y="51.06" width="8.79" height="11.07"/>
    </g>
    <g>
      <g id="Layer3_4_MEMBER_4_FILL" data-name="Layer3 4 MEMBER 4 FILL">
        <path class="cls-1" d="M65.21,50.6v29.86h24.25l-24.25-29.86Z"/>
      </g>
      <rect class="cls-1" x="80.67" y="51.06" width="8.79" height="29.4"/>
    </g>
    <g>
      <path class="cls-1" d="M60.63,51.06h-19.04v20.77c0,2.44,.92,4.53,2.78,6.26,1.86,1.73,4.11,2.6,6.74,2.6s4.88-.87,6.74-2.6c1.86-1.73,2.79-3.81,2.79-6.26v-20.77Z"/>
      <g id="Layer3_4_MEMBER_0_FILL" data-name="Layer3 4 MEMBER 0 FILL">
        <path class="cls-1" d="M41.59,51.06v11.07h19.05v-11.07h-19.05Z"/>
      </g>
    </g>
    <g>
      <g id="Layer3_4_MEMBER_6_FILL" data-name="Layer3 4 MEMBER 6 FILL">
        <path class="cls-1" d="M114.18,71.79h-19.81v8.67h19.81v-8.67Z"/>
      </g>
      <g id="Layer3_4_MEMBER_6_FILL-2" data-name="Layer3 4 MEMBER 6 FILL">
        <path class="cls-1" d="M114.18,51.06h-19.81v8.67h19.81v-8.67Z"/>
      </g>
      <polygon class="cls-1" points="94.38 51.06 94.38 80.46 104.54 80.46 104.54 59.73 104.54 51.06 94.38 51.06"/>
      <rect class="cls-1" x="104.54" y="64.05" width="6.32" height="3.41"/>
      <rect class="cls-1" x="94.38" y="59.73" width="10.16" height="12.07"/>
    </g>
  </g>
  <g>
    <path class="cls-1" d="M46.84,92.89c-.35,.18-.63,.21-.87,.21-.73,0-1.22-.25-1.55-.57-.35-.34-.61-.86-.61-1.5s.26-1.14,.61-1.48c.35-.34,.86-.57,1.47-.57,.26,0,.56,.05,.95,.22v1.05c-.2-.21-.5-.42-.92-.42-.33,0-.6,.11-.8,.31-.22,.21-.37,.53-.37,.91,0,.41,.17,.7,.34,.87,.08,.08,.37,.33,.85,.33,.24,0,.56-.06,.9-.41v1.05Z"/>
    <path class="cls-1" d="M51.1,89.07v3.94h-.91v-3.94h.91Z"/>
    <path class="cls-1" d="M54.58,93.01v-3.94h.79l2.14,2.54v-2.54h.91v3.94h-.79l-2.14-2.55v2.55h-.91Z"/>
    <path class="cls-1" d="M64.12,89.84h-1.32v.76h1.25v.77h-1.25v.87h1.32v.77h-2.23v-3.94h2.23v.77Z"/>
    <path class="cls-1" d="M67.27,93.01l.63-3.94h.76l.98,2.36,.98-2.36h.76l.63,3.94h-.91l-.31-2.35-.99,2.35h-.32l-.99-2.35-.31,2.35h-.91Z"/>
    <path class="cls-1" d="M77.61,92.27h-1.49l-.3,.74h-.95l1.59-3.94h.83l1.55,3.94h-.95l-.3-.74Zm-.25-.7l-.48-1.32-.49,1.32h.98Z"/>
    <path class="cls-1" d="M88.1,89.84h-1.32v.76h1.25v.77h-1.25v.87h1.32v.77h-2.23v-3.94h2.23v.77Z"/>
    <path class="cls-1" d="M29.19,99.86h-1.49l-.3,.74h-.95l1.59-3.94h.83l1.55,3.94h-.95l-.3-.74Zm-.25-.7l-.48-1.32-.49,1.32h.98Z"/>
    <path class="cls-1" d="M35.67,97.43h-1.28v.76h1.18v.77h-1.18v1.64h-.91v-3.94h2.19v.77Z"/>
    <path class="cls-1" d="M40.32,96.66c.5,0,.82,.17,1,.34,.17,.16,.34,.44,.34,.88,0,.25-.05,.56-.31,.8-.14,.13-.33,.25-.55,.3l1.21,1.61h-1.11l-1.06-1.55v1.55h-.91v-3.94h1.38Zm-.47,1.79h.21c.17,0,.39-.02,.54-.17,.07-.06,.15-.19,.15-.38,0-.22-.11-.34-.18-.4-.15-.11-.38-.12-.5-.12h-.21v1.08Z"/>
    <path class="cls-1" d="M48.62,97.15c.37,.36,.61,.88,.61,1.49,0,.53-.19,1.06-.61,1.48-.37,.35-.86,.58-1.52,.58-.74,0-1.24-.3-1.54-.58-.38-.35-.61-.89-.61-1.47s.25-1.14,.61-1.5c.27-.27,.76-.58,1.54-.58,.61,0,1.13,.19,1.52,.57Zm-2.39,.6c-.17,.17-.35,.46-.35,.89,0,.36,.12,.65,.36,.89,.25,.24,.54,.33,.85,.33,.4,0,.69-.15,.87-.34,.15-.15,.34-.43,.34-.88,0-.41-.17-.71-.34-.89-.19-.19-.51-.34-.87-.34s-.65,.12-.86,.34Z"/>
    <path class="cls-1" d="M54.7,97.43h-1.28v.76h1.18v.77h-1.18v1.64h-.91v-3.94h2.19v.77Z"/>
    <path class="cls-1" d="M61.3,99c0,.38-.05,.85-.44,1.25-.38,.39-.82,.45-1.23,.45s-.85-.06-1.23-.45c-.39-.4-.44-.87-.44-1.25v-2.33h.91v2.31c0,.17,.01,.46,.21,.66,.16,.17,.38,.21,.55,.21s.39-.04,.55-.21c.2-.2,.21-.49,.21-.66v-2.31h.91v2.33Z"/>
    <path class="cls-1" d="M66.15,97.43v3.17h-.91v-3.17h-.86v-.77h2.62v.77h-.86Z"/>
    <path class="cls-1" d="M73.42,99c0,.38-.05,.85-.44,1.25-.38,.39-.82,.45-1.23,.45s-.85-.06-1.23-.45c-.39-.4-.44-.87-.44-1.25v-2.33h.91v2.31c0,.17,.01,.46,.21,.66,.16,.17,.38,.21,.55,.21s.39-.04,.55-.21c.19-.2,.21-.49,.21-.66v-2.31h.91v2.33Z"/>
    <path class="cls-1" d="M78.27,96.66c.5,0,.82,.17,1.01,.34,.17,.16,.34,.44,.34,.88,0,.25-.05,.56-.31,.8-.14,.13-.33,.25-.55,.3l1.21,1.61h-1.11l-1.06-1.55v1.55h-.91v-3.94h1.38Zm-.47,1.79h.21c.17,0,.39-.02,.54-.17,.06-.06,.15-.19,.15-.38,0-.22-.11-.34-.18-.4-.15-.11-.38-.12-.5-.12h-.21v1.08Z"/>
    <path class="cls-1" d="M84,96.66v3.94h-.91v-3.94h.91Z"/>
    <path class="cls-1" d="M89.52,97.63c-.3-.27-.55-.28-.66-.28-.12,0-.28,.02-.38,.14-.06,.06-.1,.15-.1,.25,0,.09,.03,.17,.09,.22,.09,.09,.23,.12,.5,.22l.3,.11c.17,.07,.38,.15,.54,.3,.23,.22,.29,.5,.29,.73,0,.41-.14,.76-.35,.98-.35,.37-.86,.4-1.12,.4-.28,0-.53-.04-.78-.17-.2-.1-.43-.28-.58-.43l.47-.65c.1,.1,.26,.24,.37,.3,.15,.09,.31,.14,.5,.14,.12,0,.28-.02,.41-.14,.08-.07,.14-.17,.14-.32,0-.13-.05-.21-.14-.28-.11-.09-.35-.18-.46-.22l-.32-.11c-.18-.07-.4-.15-.55-.31-.21-.22-.24-.5-.24-.69,0-.35,.11-.64,.34-.89,.28-.28,.61-.36,.98-.36,.27,0,.71,.05,1.17,.39l-.41,.66Z"/>
    <path class="cls-1" d="M93.15,100.61l.63-3.94h.76l.98,2.36,.98-2.36h.76l.63,3.94h-.91l-.31-2.35-.99,2.35h-.32l-.99-2.35-.31,2.35h-.91Z"/>
    <path class="cls-1" d="M104.67,97.15c.37,.36,.61,.88,.61,1.49,0,.53-.19,1.06-.61,1.48-.37,.35-.86,.58-1.52,.58-.74,0-1.24-.3-1.54-.58-.38-.35-.61-.89-.61-1.47s.25-1.14,.61-1.5c.27-.27,.76-.58,1.54-.58,.61,0,1.13,.19,1.52,.57Zm-2.39,.6c-.17,.17-.35,.46-.35,.89,0,.36,.12,.65,.36,.89,.25,.24,.54,.33,.85,.33,.4,0,.69-.15,.87-.34,.15-.15,.34-.43,.34-.88,0-.41-.17-.71-.34-.89-.19-.19-.51-.34-.87-.34s-.65,.12-.86,.34Z"/>
  </g>
</svg>