<?xml version="1.0" encoding="utf-8"?>
<!-- Generator: Adobe Illustrator 26.4.1, SVG Export Plug-In . SVG Version: 6.00 Build 0)  -->
<svg version="1.1" id="Layer_1" xmlns="http://www.w3.org/2000/svg" xmlns:xlink="http://www.w3.org/1999/xlink" x="0px" y="0px"
	 viewBox="0 0 173.2 93.6" style="enable-background:new 0 0 173.2 93.6;" xml:space="preserve">
<style type="text/css">
	.st0{fill-rule:evenodd;clip-rule:evenodd;fill:#010101;}
</style>
<g>
	<path class="st0" d="M95.8,37.4l-1.5,7.3h3.1c1.8,0,3-0.1,3.5-0.2c1.6-0.5,2.6-1.6,2.9-3.4c0.1-0.4,0.1-0.7,0.1-1
		c0-1.2-0.6-1.9-1.7-2.3c-0.7-0.2-1.8-0.3-3.3-0.3h-3.1V37.4z M121.3,0H66.6l-2,10.1h54.7L121.3,0L121.3,0z M123.2,50.3h8.2
		l-1.2-12.4h-0.1L123.2,50.3L123.2,50.3z M64.5,49.1h4.4c2.6,0,3.9,0.9,3.9,2.6c0,0.3,0,0.6-0.1,1c-0.5,2.3-2.2,3.5-5,3.5h-4.6
		L64.5,49.1L64.5,49.1z M67,37.1h4.6c1.2,0,2,0.2,2.5,0.7c0.6,0.6,0.8,1.5,0.6,2.7c-0.3,1.4-1,2.3-2.2,2.9c-0.5,0.2-1.5,0.4-3,0.4
		h-3.9L67,37.1L67,37.1z M53.7,61.6H67c3.8,0,6.6-0.4,8.4-1.2s3.2-2,4.2-3.5c1.1-1.5,1.6-3.2,1.6-5.1c0-3-2-4.8-5.9-5.6v-0.1
		c4.5-1.1,7.1-3.3,7.9-6.8c0.1-0.5,0.2-1,0.2-1.5c0-1.4-0.5-2.6-1.4-3.6c-1-1.1-2.5-1.8-4.4-2.2c-0.4-0.1-0.8-0.1-1.3-0.2H60
		L53.7,61.6L53.7,61.6z M0.3,52C0.1,53,0,53.8,0,54.4c0,1.5,0.4,2.8,1.2,3.9c1.6,2.3,5,3.4,10,3.4c3.9,0,7.2-0.7,9.8-2.2
		c2.9-1.6,4.6-3.9,5.3-7c0.2-0.7,0.2-1.4,0.2-2c0-1.9-0.8-3.3-2.3-4.3c-0.9-0.6-2.5-1.2-4.8-1.8L14.2,43c-1.6-0.4-2.4-1.2-2.4-2.2
		c0-0.2,0-0.4,0.1-0.7c0.2-0.9,0.7-1.6,1.5-2.1c0.8-0.6,1.9-0.8,3-0.8c2.1,0,3.2,0.9,3.2,2.6c0,0.4-0.1,0.8-0.2,1.3h8.3
		c0.2-1,0.3-1.9,0.3-2.6c0-4.3-3.5-6.5-10.4-6.5c-4.2,0-7.5,0.9-10.2,2.7c-2.3,1.6-3.7,3.7-4.3,6.2c-0.1,0.7-0.2,1.3-0.2,1.8
		c0,2.9,1.9,4.9,5.8,5.9l6.9,1.8c1.4,0.4,2.1,1,2.1,2c0,0.2,0,0.5-0.1,0.7c-0.5,2.2-2.2,3.2-5.1,3.2c-2.8,0-4.2-1-4.2-3.1
		c0-0.3,0.1-0.8,0.2-1.3H0.3V52z M27.5,61.6l6.4-29.7h22.6l-1.2,5.7H40.9l-1.3,6.2h13.5l-1.3,5.7H38.3L37,55.9h14.7l-1.3,5.8
		L27.5,61.6L27.5,61.6z M144.2,61.6l6.4-29.7h22.6l-1.2,5.7h-14.4l-1.3,6.2h13.5l-1.3,5.7H155l-1.3,6.4h14.7l-1.3,5.8L144.2,61.6
		L144.2,61.6z M61.2,25.8h54.7l2-10.1H63.2L61.2,25.8L61.2,25.8z M50.3,77.9H105l2-10.1H52.3L50.3,77.9L50.3,77.9z M47,93.6h54.7
		l2-10.1H49L47,93.6L47,93.6z M108.4,61.6l18.3-29.5h10.2l5.5,29.6h-9.5l-0.8-5.9H120l-3.3,5.9H99.3c-0.1-1.1,0.1-3.3,0.5-6.7
		c0.1-1.2,0.2-2,0.2-2.4c0-0.9-0.2-1.5-0.7-1.9s-1.4-0.6-2.7-0.6h-3.5l-2.5,11.6h-8.4L88.6,32h13.9c2.4,0,4,0.1,4.8,0.2
		c1.9,0.3,3.2,0.9,4.1,2c0.8,0.9,1.1,2.1,1.1,3.5c0,0.7-0.1,1.5-0.3,2.3c-0.6,2.5-1.9,4.4-4,5.5c-1.4,0.7-3,1.2-4.9,1.5v0.2
		c2.2,0.1,3.6,0.5,4.4,1.3c0.7,0.7,1,1.8,1,3.3c0,0.5,0,1.4-0.1,2.7C108.3,58,108.3,60.4,108.4,61.6z"/>
</g>
</svg>
